{
  "results": [
    {
      "popularity": 184.696,
      "vote_count": 73,
      "video": false,
      "poster_path": "\/AsdB9A2XGalCZVjlyG9tRf03IfW.jpg",
      "id": 516486,
      "adult": false,
      "backdrop_path": "\/xXBnM6uSTk6qqCf0SRZKXcga9Ba.jpg",
      "original_language": "en",
      "original_title": "Greyhound",
      "genre_ids": [
        28,
        18,
        10752
      ],
      "title": "Greyhound",
      "vote_average": 6.7,
      "overview": "A first-time captain leads a convoy of allied ships carrying thousands of soldiers across the treacherous waters of the “Black Pit” to the front lines of WW2. With no air cover protection for 5 days, the captain and his convoy must battle the surrounding enemy Nazi U-boats in order to give the allies a chance to win the war.",
      "release_date": "2020-07-10"
    },
    {
      "popularity": 152.206,
      "vote_count": 102,
      "video": false,
      "poster_path": "\/hPkqY2EMqWUnFEoedukilIUieVG.jpg",
      "id": 531876,
      "adult": false,
      "backdrop_path": "\/n1RohH2VoK1CdVI2fXvcP19dSlm.jpg",
      "original_language": "en",
      "original_title": "The Outpost",
      "genre_ids": [
        28,
        18,
        36,
        10752
      ],
      "title": "The Outpost",
      "vote_average": 7,
      "overview": "A small unit of U.S. soldiers, alone at the remote Combat Outpost Keating, located deep in the valley of three mountains in Afghanistan, battles to defend against an overwhelming force of Taliban fighters in a coordinated attack. The Battle of Kamdesh, as it was known, was the bloodiest American engagement of the Afghan War in 2009 and Bravo Troop 3-61 CAV became one of the most decorated units of the 19-year conflict.",
      "release_date": "2020-06-24"
    },
    {
      "popularity": 88.163,
      "vote_count": 622,
      "video": false,
      "poster_path": "\/tI8ocADh22GtQFV28vGHaBZVb0U.jpg",
      "id": 475430,
      "adult": false,
      "backdrop_path": "\/o0F8xAt8YuEm5mEZviX5pEFC12y.jpg",
      "original_language": "en",
      "original_title": "Artemis Fowl",
      "genre_ids": [
        12,
        14,
        878,
        10751
      ],
      "title": "Artemis Fowl",
      "vote_average": 5.8,
      "overview": "Artemis Fowl is a 12-year-old genius and descendant of a long line of criminal masterminds. He soon finds himself in an epic battle against a race of powerful underground fairies who may be behind his father's disappearance.",
      "release_date": "2020-06-12"
    },
    {
      "popularity": 85.275,
      "vote_count": 158,
      "video": false,
      "poster_path": "\/hoUzSMxGu4Bm73EvH6B3iceFwW8.jpg",
      "id": 706510,
      "adult": false,
      "backdrop_path": "\/k8H6Qp4uJ9WHArPQwDqCaW9g3Sj.jpg",
      "original_language": "en",
      "original_title": "Desperados",
      "genre_ids": [
        35,
        10749
      ],
      "title": "Desperados",
      "vote_average": 6.5,
      "overview": "A panicked young woman and her two best friends fly to Mexico to delete a ranting email she sent to her new boyfriend. On arrival, they run into her former beau, who soon gets caught up in their frantic scheme.",
      "release_date": "2020-07-03"
    },
    {
      "popularity": 81.998,
      "vote_count": 1204,
      "video": false,
      "poster_path": "\/jHo2M1OiH9Re33jYtUQdfzPeUkx.jpg",
      "id": 385103,
      "adult": false,
      "backdrop_path": "\/fKtYXUhX5fxMxzQfyUcQW9Shik6.jpg",
      "original_language": "en",
      "original_title": "Scoob!",
      "genre_ids": [
        12,
        16,
        35,
        9648,
        10751
      ],
      "title": "Scoob!",
      "vote_average": 8,
      "overview": "In Scooby-Doo’s greatest adventure yet, see the never-before told story of how lifelong friends Scooby and Shaggy first met and how they joined forces with young detectives Fred, Velma, and Daphne to form the famous Mystery Inc. Now, with hundreds of cases solved, Scooby and the gang face their biggest, toughest mystery ever: an evil plot to unleash the ghost dog Cerberus upon the world. As they race to stop this global “dogpocalypse,” the gang discovers that Scooby has a secret legacy and an epic destiny greater than anyone ever imagined.",
      "release_date": "2020-05-15"
    },
    {
      "popularity": 77.704,
      "vote_count": 2505,
      "video": false,
      "poster_path": "\/f4aul3FyD3jv3v4bul1IrkWZvzq.jpg",
      "id": 508439,
      "adult": false,
      "backdrop_path": "\/xFxk4vnirOtUxpOEWgA1MCRfy6J.jpg",
      "original_language": "en",
      "original_title": "Onward",
      "genre_ids": [
        12,
        16,
        35,
        14,
        10751
      ],
      "title": "Onward",
      "vote_average": 7.9,
      "overview": "In a suburban fantasy world, two teenage elf brothers embark on an extraordinary quest to discover if there is still a little magic left out there.",
      "release_date": "2020-02-29"
    },
    {
      "popularity": 66.233,
      "vote_count": 105,
      "video": false,
      "poster_path": "\/fOvqEunubL3wPskvtk2Ficfl0pH.jpg",
      "id": 451184,
      "adult": false,
      "backdrop_path": "\/72r4uAQGsa8KEv0DB2TpSu31lEB.jpg",
      "original_language": "en",
      "original_title": "Wasp Network",
      "genre_ids": [
        18,
        36,
        53
      ],
      "title": "Wasp Network",
      "vote_average": 6.3,
      "overview": "Havana, Cuba, 1990. René González, an airplane pilot, unexpectedly flees the country, leaving behind his wife Olga and his daughter Irma, and begins a new life in Miami, where he becomes a member of an anti-Castro organization.",
      "release_date": "2020-01-29"
    },
    {
      "popularity": 65.151,
      "vote_count": 2796,
      "video": false,
      "poster_path": "\/8WUVHemHFH2ZIP6NWkwlHWsyrEL.jpg",
      "id": 338762,
      "adult": false,
      "backdrop_path": "\/lP5eKh8WOcPysfELrUpGhHJGZEH.jpg",
      "original_language": "en",
      "original_title": "Bloodshot",
      "genre_ids": [
        28,
        878
      ],
      "title": "Bloodshot",
      "vote_average": 6.9,
      "overview": "After he and his wife are murdered, marine Ray Garrison is resurrected by a team of scientists. Enhanced with nanotechnology, he becomes a superhuman, biotech killing machine—'Bloodshot'. As Ray first trains with fellow super-soldiers, he cannot recall anything from his former life. But when his memories flood back and he remembers the man that killed both him and his wife, he breaks out of the facility to get revenge, only to discover that there's more to the conspiracy than he thought.",
      "release_date": "2020-03-05"
    },
    {
      "popularity": 59.899,
      "vote_count": 59,
      "video": false,
      "poster_path": "\/l13mt3oHErSkkqJbN1bjzgtK0Vq.jpg",
      "id": 602147,
      "adult": false,
      "backdrop_path": "\/fssh5GyRUrXcS8OtX1b2sVAGh0l.jpg",
      "original_language": "en",
      "original_title": "Inheritance",
      "genre_ids": [
        18,
        9648,
        53
      ],
      "title": "Inheritance",
      "vote_average": 5.9,
      "overview": "A patriarch of a wealthy and powerful family suddenly passes away, leaving his wife and daughter with a shocking secret inheritance that threatens to unravel and destroy their lives.",
      "release_date": "2020-04-30"
    },
    {
      "popularity": 55.56,
      "vote_count": 1071,
      "video": false,
      "poster_path": "\/wxPhn4ef1EAo5njxwBkAEVrlJJG.jpg",
      "id": 514847,
      "adult": false,
      "backdrop_path": "\/naXUDz0VGK7aaPlEpsuYW8kNVsr.jpg",
      "original_language": "en",
      "original_title": "The Hunt",
      "genre_ids": [
        28,
        27,
        53
      ],
      "title": "The Hunt",
      "vote_average": 6.6,
      "overview": "Twelve strangers wake up in a clearing. They don't know where they are—or how they got there. In the shadow of a dark internet conspiracy theory, ruthless elitists gather at a remote location to hunt humans for sport. But their master plan is about to be derailed when one of the hunted turns the tables on her pursuers.",
      "release_date": "2020-03-11"
    },
    {
      "popularity": 54.493,
      "vote_count": 218,
      "video": false,
      "poster_path": "\/MBiKqTsouYqAACLYNDadsjhhC0.jpg",
      "id": 486589,
      "adult": false,
      "backdrop_path": "\/bga3i5jcejBekr2FCGJga1fYCh.jpg",
      "original_language": "en",
      "original_title": "Red Shoes and the Seven Dwarfs",
      "genre_ids": [
        16,
        10749,
        10751
      ],
      "title": "Red Shoes and the Seven Dwarfs",
      "vote_average": 7,
      "overview": "Princes who have been turned into Dwarfs seek the red shoes of a lady in order to break the spell, although it will not be easy.",
      "release_date": "2019-07-25"
    },
    {
      "popularity": 53.139,
      "vote_count": 356,
      "video": false,
      "poster_path": "\/9zrbgYyFvwH8sy5mv9eT25xsAzL.jpg",
      "id": 531454,
      "adult": false,
      "backdrop_path": "\/jMO1icztaUUEUApdAQx0cZOt7b8.jpg",
      "original_language": "en",
      "original_title": "Eurovision Song Contest: The Story of Fire Saga",
      "genre_ids": [
        35,
        10402
      ],
      "title": "Eurovision Song Contest: The Story of Fire Saga",
      "vote_average": 6.5,
      "overview": "Two small-town aspiring musicians chase their pop star dreams at a global music competition, where high stakes, scheming rivals and onstage mishaps test their bond.",
      "release_date": "2020-06-26"
    },
    {
      "popularity": 50.215,
      "vote_count": 503,
      "video": false,
      "poster_path": "\/mBBBXseq4k4dI63k06XIrsc02j8.jpg",
      "id": 542224,
      "adult": false,
      "backdrop_path": "\/jEPEVO48hKQB0EUNFQOSv6qtKNW.jpg",
      "original_language": "en",
      "original_title": "Gretel & Hansel",
      "genre_ids": [
        14,
        27,
        53
      ],
      "title": "Gretel & Hansel",
      "vote_average": 6.4,
      "overview": "A long time ago in a distant fairy tale countryside, a young girl leads her little brother into a dark wood in desperate search of food and work, only to stumble upon a nexus of terrifying evil.",
      "release_date": "2020-01-30"
    },
    {
      "popularity": 45.329,
      "vote_count": 1951,
      "video": false,
      "poster_path": "\/kTQ3J8oTTKofAVLYnds2cHUz9KO.jpg",
      "id": 522938,
      "adult": false,
      "backdrop_path": "\/3IHqwENGxOb36Jgeot4XHs3BTxz.jpg",
      "original_language": "en",
      "original_title": "Rambo: Last Blood",
      "genre_ids": [
        28,
        18,
        53
      ],
      "title": "Rambo: Last Blood",
      "vote_average": 6.3,
      "overview": "After fighting his demons for decades, John Rambo now lives in peace on his family ranch in Arizona, but his rest is interrupted when Gabriela, the granddaughter of his housekeeper María, disappears after crossing the border into Mexico to meet her biological father. Rambo, who has become a true father figure for Gabriela over the years, undertakes a desperate and dangerous journey to find her.",
      "release_date": "2019-09-19"
    },
    {
      "popularity": 44.444,
      "vote_count": 11,
      "video": false,
      "poster_path": "\/3wZ0gxLqsPleneFSTZILmM3BE8Q.jpg",
      "id": 539181,
      "adult": false,
      "backdrop_path": "\/vpUUznNzW85xo02H16RaSxRNS1.jpg",
      "original_language": "en",
      "original_title": "Relic",
      "genre_ids": [
        18,
        27
      ],
      "title": "Relic",
      "vote_average": 6.5,
      "overview": "When Edna, the elderly and widowed matriarch of the family, goes missing, her daughter Kay and granddaughter Sam travel to their remote family home to find her. Soon after her return, they start to discover a sinister presence haunting the house and taking control of Edna.",
      "release_date": "2020-07-03"
    },
    {
      "popularity": 43.566,
      "vote_count": 1392,
      "video": false,
      "poster_path": "\/gzlbb3yeVISpQ3REd3Ga1scWGTU.jpg",
      "id": 443791,
      "adult": false,
      "backdrop_path": "\/ww7eC3BqSbFsyE5H5qMde8WkxJ2.jpg",
      "original_language": "en",
      "original_title": "Underwater",
      "genre_ids": [
        28,
        27,
        878,
        53
      ],
      "title": "Underwater",
      "vote_average": 6.3,
      "overview": "After an earthquake destroys their underwater station, six researchers must navigate two miles along the dangerous, unknown depths of the ocean floor to make it to safety in a race against time.",
      "release_date": "2020-01-08"
    },
    {
      "popularity": 39.023,
      "vote_count": 5,
      "video": false,
      "poster_path": "\/hnNjlXAQan8WdNtQMfdldAGoqMF.jpg",
      "id": 529149,
      "adult": false,
      "backdrop_path": "\/A47BxbWFfQAKvVsZwiMuuF34s9R.jpg",
      "original_language": "en",
      "original_title": "Darlin'",
      "genre_ids": [
        27,
        9648
      ],
      "title": "Darlin'",
      "vote_average": 4,
      "overview": "Found at a Catholic hospital filthy and ferocious, feral teenager Darlin’ is whisked off to a care home run by The Bishop and his obedient nuns, where she’s to be rehabilitated into a \"good girl\" as an example of the miraculous work of the church. But Darlin’ holds a secret darker than the \"sins\" she is threatened with, and she is not traveling alone. The Woman who raised her, equally fierce and feral, is ever present in the shadows of Darlin’s psyche and is determined to come for her no matter who tries to get in her way.",
      "release_date": "2020-07-10"
    },
    {
      "popularity": 38.593,
      "vote_count": 27,
      "video": false,
      "poster_path": "\/aINpljdt3VVMrCLtJW4BektwYOp.jpg",
      "id": 522098,
      "adult": false,
      "backdrop_path": "\/cjAirCV9TyTQcp7mFNRnvgkoVFV.jpg",
      "original_language": "en",
      "original_title": "Babyteeth",
      "genre_ids": [
        35,
        18
      ],
      "title": "Babyteeth",
      "vote_average": 5.5,
      "overview": "A terminally ill teen upsets her parents when she falls in love with a small-time drug dealer.",
      "release_date": "2020-06-18"
    },
    {
      "popularity": 38.27,
      "vote_count": 17370,
      "video": false,
      "poster_path": "\/f89U3ADr1oiB1s9GkdPOEpXUk5H.jpg",
      "id": 603,
      "adult": false,
      "backdrop_path": "\/ByDf0zjLSumz1MP1cDEo2JWVtU.jpg",
      "original_language": "en",
      "original_title": "The Matrix",
      "genre_ids": [
        28,
        878
      ],
      "title": "The Matrix",
      "vote_average": 8.1,
      "overview": "Set in the 22nd century, The Matrix tells the story of a computer hacker who joins a group of underground insurgents fighting the vast and powerful computers who now rule the earth.",
      "release_date": "1999-03-30"
    },
    {
      "popularity": 35.228,
      "vote_count": 474,
      "video": false,
      "poster_path": "\/myf3qzpeN0JbuFRPwSpJcz7rmAT.jpg",
      "id": 458305,
      "adult": false,
      "backdrop_path": "\/jZ4YdDCnfK4cO13do9J4JaT8d2O.jpg",
      "original_language": "en",
      "original_title": "Vivarium",
      "genre_ids": [
        27,
        878,
        53
      ],
      "title": "Vivarium",
      "vote_average": 5.9,
      "overview": "A young woman and her fiancé are in search of the perfect starter home. After following a mysterious real estate agent to a new housing development, the couple finds themselves trapped in a maze of identical houses and forced to raise an otherworldly child.",
      "release_date": "2019-07-12"
    }
  ],
  "page": 1,
  "total_results": 606,
  "dates": {
    "maximum": "2020-07-11",
    "minimum": "2020-05-24"
  },
  "total_pages": 31
}